Monte Carlo-Informed Selection of CUNY Retirement Plans – STA 9750 2024 Updated Submission Material
…
simulated_cum_df <- simulated_cum_df %>%
  mutate(month = as.Date(month))  # Ensure 'month' is in Date format

# Debugging filter outputs
print(head(wage_df_aligned))  # Check aligned wage data

# A tibble: 0 × 2
# ℹ 2 variables: date <date>, value <dbl>

print(filter(simulated_cum_df, month == max(simulated_cum_df$month)))  

# A tibble: 1,000 × 3
   month      simulation cumulative_return
   <date>     <chr>                  <dbl>
 1 1970-01-13 X1                   0.196  
 2 1970-01-13 X2                  -0.0354 
 3 1970-01-13 X3                   0.189  
 4 1970-01-13 X4                   0.0339 
 5 1970-01-13 X5                   0.229  
 6 1970-01-13 X6                   0.00409
 7 1970-01-13 X7                   0.0765 
 8 1970-01-13 X8                   0.312  
 9 1970-01-13 X9                  -0.0157 
10 1970-01-13 X10                 -0.0378 
# ℹ 990 more rows
# Align dates to the first day of the month
wage_df_aligned <- wage_df_aligned %>%
  mutate(date = floor_date(date, unit = "month"))

simulated_cum_df <- simulated_cum_df %>%
  mutate(month = floor_date(month, unit = "month"))

print(head(wage_df_aligned))  # Check aligned wage data

# A tibble: 0 × 2
# ℹ 2 variables: date <date>, value <dbl>

print(filter(simulated_cum_df, month == max(simulated_cum_df$month)))  # Check filtered simulations

# A tibble: 12,000 × 3
   month      simulation cumulative_return
   <date>     <chr>                  <dbl>
 1 1970-01-01 X1                  -0.0175 
 2 1970-01-01 X2                   0.0249 
 3 1970-01-01 X3                  -0.0204 
 4 1970-01-01 X4                   0.0316 
 5 1970-01-01 X5                   0.0416 
 6 1970-01-01 X6                   0.0239 
 7 1970-01-01 X7                   0.0516 
 8 1970-01-01 X8                  -0.00253
 9 1970-01-01 X9                   0.104  
10 1970-01-01 X10                 -0.00957
# ℹ 11,990 more rows
…
